<?xml version="1.0" encoding="UTF-8"?>
<svg xmlns="http://www.w3.org/2000/svg" xmlns:xlink="http://www.w3.org/1999/xlink"
     width="116" height="116" viewBox="-8 -108 116 116">
<defs>
</defs>
<path d="M80,-60 L80,-40 L100,-40 L100,-80 L60,-80 L60,-60 Z" fill="yellow" stroke-width="2" stroke="black" />
<path d="M20,-40 L60,-40 L60,-60 L40,-60 L40,-80 L20,-80 Z" fill="red" stroke-width="2" stroke="black" />
<path d="M40,-20 L80,-20 L80,-60 L60,-60 L60,-40 L40,-40 Z" fill="green" stroke-width="2" stroke="black" />
<path d="M20,0 L60,0 L60,-20 L40,-20 L40,-40 L20,-40 Z" fill="red" stroke-width="2" stroke="black" />
<path d="M60,0 L100,0 L100,-40 L80,-40 L80,-20 L60,-20 Z" fill="green" stroke-width="2" stroke="black" />
<path d="M40,-60 L60,-60 L60,-80 L40,-80 Z" fill="black" stroke-width="2" stroke="black" />
<text x="5" y="-64" font-size="16" fill="grey" dy="0em">0</text>
<text x="25" y="-84" font-size="16" fill="grey" dy="0em">0</text>
<text x="5" y="-44" font-size="16" fill="grey" dy="0em">1</text>
<text x="45" y="-84" font-size="16" fill="grey" dy="0em">1</text>
<text x="5" y="-24" font-size="16" fill="grey" dy="0em">2</text>
<text x="65" y="-84" font-size="16" fill="grey" dy="0em">2</text>
<text x="5" y="-4" font-size="16" fill="grey" dy="0em">3</text>
<text x="85" y="-84" font-size="16" fill="grey" dy="0em">3</text>
</svg>