<?xml version="1.0" encoding="UTF-8"?>
<svg xmlns="http://www.w3.org/2000/svg" xmlns:xlink="http://www.w3.org/1999/xlink"
     width="336" height="136" viewBox="-8 -128 336 136">
<defs>
</defs>
<path d="M20,-60 L60,-60 L60,-100 L40,-100 L40,-80 L20,-80 Z" fill="green" stroke-width="2" stroke="black" />
<path d="M100,-60 L140,-60 L140,-80 L120,-80 L120,-100 L100,-100 Z" fill="red" stroke-width="2" stroke="black" />
<path d="M200,-60 L200,-40 L220,-40 L220,-80 L180,-80 L180,-60 Z" fill="yellow" stroke-width="2" stroke="black" />
<path d="M280,-60 L300,-60 L300,-80 L260,-80 L260,-40 L280,-40 Z" fill="blue" stroke-width="2" stroke="black" />
<text x="20" y="-24" font-size="16" fill="grey" dy="0em">Sens 0</text>
<text x="100" y="-24" font-size="16" fill="grey" dy="0em">Sens 1</text>
<text x="180" y="-24" font-size="16" fill="grey" dy="0em">Sens 2</text>
<text x="260" y="-24" font-size="16" fill="grey" dy="0em">Sens 3</text>
</svg>