<?xml version="1.0" encoding="UTF-8"?>
<svg xmlns="http://www.w3.org/2000/svg" xmlns:xlink="http://www.w3.org/1999/xlink"
     width="360" height="320" viewBox="0 -360 360 320">
<defs>
</defs>
<rect x="0" y="-360" width="360" height="360" fill="white" />
<rect x="40" y="-120" width="40" height="40" fill="#ffffff" stroke-width="3" stroke="#555" />
<rect x="80" y="-120" width="40" height="40" fill="#ffffff" stroke-width="3" stroke="#555" />
<rect x="120" y="-120" width="40" height="40" fill="#ffffff" stroke-width="3" stroke="#555" />
<rect x="160" y="-120" width="40" height="40" fill="#ffffff" stroke-width="3" stroke="#555" />
<rect x="200" y="-120" width="40" height="40" fill="#ffffff" stroke-width="3" stroke="#555" />
<rect x="240" y="-120" width="40" height="40" fill="#ffffff" stroke-width="3" stroke="#555" />
<rect x="280" y="-120" width="40" height="40" fill="#ffffff" stroke-width="3" stroke="#555" />
<rect x="40" y="-160" width="40" height="40" fill="#ffffff" stroke-width="3" stroke="#555" />
<rect x="80" y="-160" width="40" height="40" fill="#ffffff" stroke-width="3" stroke="#555" />
<rect x="120" y="-160" width="40" height="40" fill="#ffffff" stroke-width="3" stroke="#555" />
<rect x="160" y="-160" width="40" height="40" fill="#ffffff" stroke-width="3" stroke="#555" />
<rect x="200" y="-160" width="40" height="40" fill="#ffffff" stroke-width="3" stroke="#555" />
<rect x="240" y="-160" width="40" height="40" fill="#ffffff" stroke-width="3" stroke="#555" />
<rect x="280" y="-160" width="40" height="40" fill="#ffffff" stroke-width="3" stroke="#555" />
<rect x="40" y="-200" width="40" height="40" fill="#ffffff" stroke-width="3" stroke="#555" />
<rect x="80" y="-200" width="40" height="40" fill="#ffffff" stroke-width="3" stroke="#555" />
<rect x="120" y="-200" width="40" height="40" fill="#ffffff" stroke-width="3" stroke="#555" />
<rect x="160" y="-200" width="40" height="40" fill="#ffffff" stroke-width="3" stroke="#555" />
<rect x="200" y="-200" width="40" height="40" fill="#ffffff" stroke-width="3" stroke="#555" />
<rect x="240" y="-200" width="40" height="40" fill="#ffffff" stroke-width="3" stroke="#555" />
<rect x="280" y="-200" width="40" height="40" fill="#ffffff" stroke-width="3" stroke="#555" />
<rect x="40" y="-240" width="40" height="40" fill="#ffffff" stroke-width="3" stroke="#555" />
<rect x="80" y="-240" width="40" height="40" fill="#ffffff" stroke-width="3" stroke="#555" />
<rect x="120" y="-240" width="40" height="40" fill="#ffffff" stroke-width="3" stroke="#555" />
<rect x="160" y="-240" width="40" height="40" fill="#ffffff" stroke-width="3" stroke="#555" />
<rect x="200" y="-240" width="40" height="40" fill="#ffffff" stroke-width="3" stroke="#555" />
<rect x="240" y="-240" width="40" height="40" fill="#ffffff" stroke-width="3" stroke="#555" />
<rect x="280" y="-240" width="40" height="40" fill="#ffffff" stroke-width="3" stroke="#555" />
<rect x="40" y="-280" width="40" height="40" fill="#ffffff" stroke-width="3" stroke="#555" />
<rect x="80" y="-280" width="40" height="40" fill="#ffffff" stroke-width="3" stroke="#555" />
<rect x="120" y="-280" width="40" height="40" fill="#ffffff" stroke-width="3" stroke="#555" />
<rect x="160" y="-280" width="40" height="40" fill="#ffffff" stroke-width="3" stroke="#555" />
<rect x="200" y="-280" width="40" height="40" fill="#ffffff" stroke-width="3" stroke="#555" />
<rect x="240" y="-280" width="40" height="40" fill="#ffffff" stroke-width="3" stroke="#555" />
<rect x="280" y="-280" width="40" height="40" fill="#ffffff" stroke-width="3" stroke="#555" />
<rect x="40" y="-320" width="40" height="40" fill="#ffffff" stroke-width="3" stroke="#555" />
<rect x="80" y="-320" width="40" height="40" fill="#ffffff" stroke-width="3" stroke="#555" />
<rect x="120" y="-320" width="40" height="40" fill="#ffffff" stroke-width="3" stroke="#555" />
<rect x="160" y="-320" width="40" height="40" fill="#ffffff" stroke-width="3" stroke="#555" />
<rect x="200" y="-320" width="40" height="40" fill="#ffffff" stroke-width="3" stroke="#555" />
<rect x="240" y="-320" width="40" height="40" fill="#ffffff" stroke-width="3" stroke="#555" />
<rect x="280" y="-320" width="40" height="40" fill="#ffffff" stroke-width="3" stroke="#555" />
<text x="20.0" y="-300.0" font-size="16" text-anchor="middle" dy="0.4em">0</text>
<text x="20.0" y="-260.0" font-size="16" text-anchor="middle" dy="0.4em">1</text>
<text x="20.0" y="-220.0" font-size="16" text-anchor="middle" dy="0.4em">2</text>
<text x="20.0" y="-180.0" font-size="16" text-anchor="middle" dy="0.4em">3</text>
<text x="20.0" y="-140.0" font-size="16" text-anchor="middle" dy="0.4em">4</text>
<text x="20.0" y="-100.0" font-size="16" text-anchor="middle" dy="0.4em">5</text>
<text x="60.0" y="-340.0" font-size="16" text-anchor="middle" dy="0.4em">0</text>
<text x="100.0" y="-340.0" font-size="16" text-anchor="middle" dy="0.4em">1</text>
<text x="140.0" y="-340.0" font-size="16" text-anchor="middle" dy="0.4em">2</text>
<text x="180.0" y="-340.0" font-size="16" text-anchor="middle" dy="0.4em">3</text>
<text x="220.0" y="-340.0" font-size="16" text-anchor="middle" dy="0.4em">4</text>
<text x="260.0" y="-340.0" font-size="16" text-anchor="middle" dy="0.4em">5</text>
<text x="300.0" y="-340.0" font-size="16" text-anchor="middle" dy="0.4em">6</text>
<rect x="200" y="-320" width="40" height="40" fill="#53ed74" stroke-width="3" stroke="#555" />
<rect x="160" y="-280" width="40" height="40" fill="#53ed74" stroke-width="3" stroke="#555" />
<rect x="160" y="-240" width="40" height="40" fill="#53ed74" stroke-width="3" stroke="#555" />
<rect x="200" y="-200" width="40" height="40" fill="#53ed74" stroke-width="3" stroke="#555" />
<rect x="240" y="-160" width="40" height="40" fill="#53ed74" stroke-width="3" stroke="#555" />
<rect x="280" y="-120" width="40" height="40" fill="#53ed74" stroke-width="3" stroke="#555" />
<text x="60.0" y="-300.0" font-size="20" text-anchor="middle" dy="0.4em">7</text>
<text x="100.0" y="-300.0" font-size="20" text-anchor="middle" dy="0.4em">9</text>
<text x="140.0" y="-300.0" font-size="20" text-anchor="middle" dy="0.4em">10</text>
<text x="180.0" y="-300.0" font-size="20" text-anchor="middle" dy="0.4em">7</text>
<text x="220.0" y="-300.0" font-size="20" text-anchor="middle" dy="0.4em">10</text>
<text x="260.0" y="-300.0" font-size="20" text-anchor="middle" dy="0.4em">8</text>
<text x="300.0" y="-300.0" font-size="20" text-anchor="middle" dy="0.4em">5</text>
<text x="60.0" y="-260.0" font-size="20" text-anchor="middle" dy="0.4em">5</text>
<text x="100.0" y="-260.0" font-size="20" text-anchor="middle" dy="0.4em">3</text>
<text x="140.0" y="-260.0" font-size="20" text-anchor="middle" dy="0.4em">1</text>
<text x="180.0" y="-260.0" font-size="20" text-anchor="middle" dy="0.4em">7</text>
<text x="220.0" y="-260.0" font-size="20" text-anchor="middle" dy="0.4em">5</text>
<text x="260.0" y="-260.0" font-size="20" text-anchor="middle" dy="0.4em">7</text>
<text x="300.0" y="-260.0" font-size="20" text-anchor="middle" dy="0.4em">1</text>
<text x="60.0" y="-220.0" font-size="20" text-anchor="middle" dy="0.4em">8</text>
<text x="100.0" y="-220.0" font-size="20" text-anchor="middle" dy="0.4em">9</text>
<text x="140.0" y="-220.0" font-size="20" text-anchor="middle" dy="0.4em">7</text>
<text x="180.0" y="-220.0" font-size="20" text-anchor="middle" dy="0.4em">7</text>
<text x="220.0" y="-220.0" font-size="20" text-anchor="middle" dy="0.4em">2</text>
<text x="260.0" y="-220.0" font-size="20" text-anchor="middle" dy="0.4em">3</text>
<text x="300.0" y="-220.0" font-size="20" text-anchor="middle" dy="0.4em">2</text>
<text x="60.0" y="-180.0" font-size="20" text-anchor="middle" dy="0.4em">7</text>
<text x="100.0" y="-180.0" font-size="20" text-anchor="middle" dy="0.4em">7</text>
<text x="140.0" y="-180.0" font-size="20" text-anchor="middle" dy="0.4em">2</text>
<text x="180.0" y="-180.0" font-size="20" text-anchor="middle" dy="0.4em">4</text>
<text x="220.0" y="-180.0" font-size="20" text-anchor="middle" dy="0.4em">6</text>
<text x="260.0" y="-180.0" font-size="20" text-anchor="middle" dy="0.4em">5</text>
<text x="300.0" y="-180.0" font-size="20" text-anchor="middle" dy="0.4em">7</text>
<text x="60.0" y="-140.0" font-size="20" text-anchor="middle" dy="0.4em">6</text>
<text x="100.0" y="-140.0" font-size="20" text-anchor="middle" dy="0.4em">7</text>
<text x="140.0" y="-140.0" font-size="20" text-anchor="middle" dy="0.4em">1</text>
<text x="180.0" y="-140.0" font-size="20" text-anchor="middle" dy="0.4em">6</text>
<text x="220.0" y="-140.0" font-size="20" text-anchor="middle" dy="0.4em">6</text>
<text x="260.0" y="-140.0" font-size="20" text-anchor="middle" dy="0.4em">6</text>
<text x="300.0" y="-140.0" font-size="20" text-anchor="middle" dy="0.4em">1</text>
<text x="60.0" y="-100.0" font-size="20" text-anchor="middle" dy="0.4em">3</text>
<text x="100.0" y="-100.0" font-size="20" text-anchor="middle" dy="0.4em">2</text>
<text x="140.0" y="-100.0" font-size="20" text-anchor="middle" dy="0.4em">5</text>
<text x="180.0" y="-100.0" font-size="20" text-anchor="middle" dy="0.4em">3</text>
<text x="220.0" y="-100.0" font-size="20" text-anchor="middle" dy="0.4em">2</text>
<text x="260.0" y="-100.0" font-size="20" text-anchor="middle" dy="0.4em">2</text>
<text x="300.0" y="-100.0" font-size="20" text-anchor="middle" dy="0.4em">10</text>
</svg>