<?xml version="1.0" encoding="ISO-8859-1" standalone="no"?>

<svg 
     version="1.1"
     baseProfile="full"
     xmlns="http://www.w3.org/2000/svg"
     xmlns:xlink="http://www.w3.org/1999/xlink"
     xmlns:ev="http://www.w3.org/2001/xml-events"
     width="14.11111111111111cm"
     height="9.948333333333332cm"
     viewBox="0 0 745 525"
     >
<title>

</title>
<g stroke-linejoin="miter" stroke-dashoffset="0.0000" stroke-dasharray="none" stroke-width="1.0000" stroke-miterlimit="10.000" stroke-linecap="square">
<g transform="matrix(1.0000, 0.0000, 0.0000, 1.0000, -212.00, -72.000)">
<clipPath id="clipab1cfec6-5b1e-4cf3-9fde-2a8d375f692b">
  <path d="M 212.00 72.000 L 212.00 599.00 L 957.00 599.00 L 957.00 72.000 z"/>
</clipPath>
<g clip-path="url(#clip1)">
<g stroke-linecap="butt" fill="none" stroke-opacity="1.0000" stroke="#000000">
  <path d="M 293.69 2.0000 L 293.69 880.00"/>
</g> <!-- drawing style -->
</g> <!-- clip1 -->
</g> <!-- transform -->
<g transform="matrix(1.0000, 0.0000, 0.0000, 1.0000, -212.00, -72.000)">
<clipPath id="clip4ac4823e-bbad-4892-83ac-a46bddeb2b02">
  <path d="M 212.00 72.000 L 212.00 599.00 L 957.00 599.00 L 957.00 72.000 z"/>
</clipPath>
<g clip-path="url(#clip2)">
<g stroke-linecap="butt" fill="none" stroke-opacity="1.0000" stroke="#000000">
  <path d="M 293.69 1.0000 L 289.69 5.0000"/>
</g> <!-- drawing style -->
</g> <!-- clip2 -->
</g> <!-- transform -->
<g transform="matrix(1.0000, 0.0000, 0.0000, 1.0000, -212.00, -72.000)">
<clipPath id="clip470d329a-ed86-4cc0-a614-b9f3d40f0cbd">
  <path d="M 212.00 72.000 L 212.00 599.00 L 957.00 599.00 L 957.00 72.000 z"/>
</clipPath>
<g clip-path="url(#clip3)">
<g stroke-linecap="butt" fill="none" stroke-opacity="1.0000" stroke="#000000">
  <path d="M 293.69 1.0000 L 297.69 5.0000"/>
</g> <!-- drawing style -->
</g> <!-- clip3 -->
</g> <!-- transform -->
<g transform="matrix(1.0000, 0.0000, 0.0000, 1.0000, -212.00, -72.000)">
<clipPath id="clip58345513-d5e6-450b-9378-24848d5978e4">
  <path d="M 212.00 72.000 L 212.00 599.00 L 957.00 599.00 L 957.00 72.000 z"/>
</clipPath>
<g clip-path="url(#clip4)">
<g stroke-linecap="butt" fill="none" stroke-opacity="1.0000" stroke="#000000">
  <path d="M 0.0000 526.84 L 1293.0 526.84"/>
</g> <!-- drawing style -->
</g> <!-- clip4 -->
</g> <!-- transform -->
<g transform="matrix(1.0000, 0.0000, 0.0000, 1.0000, -212.00, -72.000)">
<clipPath id="clipfaf1cb4b-7517-4439-8343-ea7a171d0d37">
  <path d="M 212.00 72.000 L 212.00 599.00 L 957.00 599.00 L 957.00 72.000 z"/>
</clipPath>
<g clip-path="url(#clip5)">
<g stroke-linecap="butt" fill="none" stroke-opacity="1.0000" stroke="#000000">
  <path d="M 1294.0 526.84 L 1290.0 522.84"/>
</g> <!-- drawing style -->
</g> <!-- clip5 -->
</g> <!-- transform -->
<g transform="matrix(1.0000, 0.0000, 0.0000, 1.0000, -212.00, -72.000)">
<clipPath id="clip15fd4729-1fde-47d2-86cb-ca03196eed03">
  <path d="M 212.00 72.000 L 212.00 599.00 L 957.00 599.00 L 957.00 72.000 z"/>
</clipPath>
<g clip-path="url(#clip6)">
<g stroke-linecap="butt" fill="none" stroke-opacity="1.0000" stroke="#000000">
  <path d="M 1294.0 526.84 L 1290.0 530.84"/>
</g> <!-- drawing style -->
</g> <!-- clip6 -->
</g> <!-- transform -->
<g transform="matrix(1.0000, 0.0000, 0.0000, 1.0000, -212.00, -72.000)">
<clipPath id="clip0cac7fb1-be4d-40d0-b6a8-9d2ac547bfdf">
  <path d="M 212.00 72.000 L 212.00 599.00 L 957.00 599.00 L 957.00 72.000 z"/>
</clipPath>
<g clip-path="url(#clip7)">
<g stroke-linecap="butt" fill="none" stroke-opacity="1.0000" stroke="#000000">
  <path d="M 2.5495 526.84 L 2.5495 529.84"/>
</g> <!-- drawing style -->
</g> <!-- clip7 -->
</g> <!-- transform -->
<g transform="matrix(1.0000, 0.0000, 0.0000, 1.0000, -212.00, -72.000)">
<clipPath id="clip24131bbd-00d8-45c9-aa12-1a74addcb5a4">
  <path d="M 212.00 72.000 L 212.00 599.00 L 957.00 599.00 L 957.00 72.000 z"/>
</clipPath>
<g clip-path="url(#clip8)">
<g stroke-linecap="butt" fill="none" stroke-opacity="1.0000" stroke="#000000">
  <path d="M 99.595 526.84 L 99.595 529.84"/>
</g> <!-- drawing style -->
</g> <!-- clip8 -->
</g> <!-- transform -->
<g transform="matrix(1.0000, 0.0000, 0.0000, 1.0000, -212.00, -72.000)">
<clipPath id="clip1ccd02fc-74e4-43cf-bcfe-a1e860665fa7">
  <path d="M 212.00 72.000 L 212.00 599.00 L 957.00 599.00 L 957.00 72.000 z"/>
</clipPath>
<g clip-path="url(#clip9)">
<g stroke-linecap="butt" fill="none" stroke-opacity="1.0000" stroke="#000000">
  <path d="M 196.64 526.84 L 196.64 529.84"/>
</g> <!-- drawing style -->
</g> <!-- clip9 -->
</g> <!-- transform -->
<g transform="matrix(1.0000, 0.0000, 0.0000, 1.0000, -212.00, -72.000)">
<clipPath id="clipb7cfa915-51aa-4866-8e38-767fe04bce57">
  <path d="M 212.00 72.000 L 212.00 599.00 L 957.00 599.00 L 957.00 72.000 z"/>
</clipPath>
<g clip-path="url(#clip10)">
<g stroke-linecap="butt" fill="none" stroke-opacity="1.0000" stroke="#000000">
  <path d="M 293.69 526.84 L 293.69 529.84"/>
</g> <!-- drawing style -->
</g> <!-- clip10 -->
</g> <!-- transform -->
<g transform="matrix(1.0000, 0.0000, 0.0000, 1.0000, -212.00, -72.000)">
<clipPath id="clipbc2402b1-5d46-4a07-8e26-bb6ffbc9540f">
  <path d="M 212.00 72.000 L 212.00 599.00 L 957.00 599.00 L 957.00 72.000 z"/>
</clipPath>
<g clip-path="url(#clip11)">
<g stroke-linecap="butt" fill="none" stroke-opacity="1.0000" stroke="#000000">
  <path d="M 390.73 526.84 L 390.73 529.84"/>
</g> <!-- drawing style -->
</g> <!-- clip11 -->
</g> <!-- transform -->
<g transform="matrix(1.0000, 0.0000, 0.0000, 1.0000, -212.00, -72.000)">
<clipPath id="clip7b57829f-bd6e-4197-90cb-78f7fa185684">
  <path d="M 212.00 72.000 L 212.00 599.00 L 957.00 599.00 L 957.00 72.000 z"/>
</clipPath>
<g clip-path="url(#clip12)">
<g stroke-linecap="butt" fill="none" stroke-opacity="1.0000" stroke="#000000">
  <path d="M 487.78 526.84 L 487.78 529.84"/>
</g> <!-- drawing style -->
</g> <!-- clip12 -->
</g> <!-- transform -->
<g transform="matrix(1.0000, 0.0000, 0.0000, 1.0000, -212.00, -72.000)">
<clipPath id="clip138aa2ec-1276-48e3-afe1-752993ea0e63">
  <path d="M 212.00 72.000 L 212.00 599.00 L 957.00 599.00 L 957.00 72.000 z"/>
</clipPath>
<g clip-path="url(#clip13)">
<g stroke-linecap="butt" fill="none" stroke-opacity="1.0000" stroke="#000000">
  <path d="M 584.82 526.84 L 584.82 529.84"/>
</g> <!-- drawing style -->
</g> <!-- clip13 -->
</g> <!-- transform -->
<g transform="matrix(1.0000, 0.0000, 0.0000, 1.0000, -212.00, -72.000)">
<clipPath id="clipe8d3b3a7-2bad-44fb-979b-58e2ce01b96b">
  <path d="M 212.00 72.000 L 212.00 599.00 L 957.00 599.00 L 957.00 72.000 z"/>
</clipPath>
<g clip-path="url(#clip14)">
<g stroke-linecap="butt" fill="none" stroke-opacity="1.0000" stroke="#000000">
  <path d="M 681.87 526.84 L 681.87 529.84"/>
</g> <!-- drawing style -->
</g> <!-- clip14 -->
</g> <!-- transform -->
<g transform="matrix(1.0000, 0.0000, 0.0000, 1.0000, -212.00, -72.000)">
<clipPath id="clip823ad44e-4399-4c31-aba0-cc3ebd037e3f">
  <path d="M 212.00 72.000 L 212.00 599.00 L 957.00 599.00 L 957.00 72.000 z"/>
</clipPath>
<g clip-path="url(#clip15)">
<g stroke-linecap="butt" fill="none" stroke-opacity="1.0000" stroke="#000000">
  <path d="M 778.91 526.84 L 778.91 529.84"/>
</g> <!-- drawing style -->
</g> <!-- clip15 -->
</g> <!-- transform -->
<g transform="matrix(1.0000, 0.0000, 0.0000, 1.0000, -212.00, -72.000)">
<clipPath id="clip410614d8-7b87-477b-b6ee-fcda3e727a67">
  <path d="M 212.00 72.000 L 212.00 599.00 L 957.00 599.00 L 957.00 72.000 z"/>
</clipPath>
<g clip-path="url(#clip16)">
<g stroke-linecap="butt" fill="none" stroke-opacity="1.0000" stroke="#000000">
  <path d="M 875.96 526.84 L 875.96 529.84"/>
</g> <!-- drawing style -->
</g> <!-- clip16 -->
</g> <!-- transform -->
<g transform="matrix(1.0000, 0.0000, 0.0000, 1.0000, -212.00, -72.000)">
<clipPath id="clip0be108e5-2f27-47c3-b35a-f76622ce5a77">
  <path d="M 212.00 72.000 L 212.00 599.00 L 957.00 599.00 L 957.00 72.000 z"/>
</clipPath>
<g clip-path="url(#clip17)">
<g stroke-linecap="butt" fill="none" stroke-opacity="1.0000" stroke="#000000">
  <path d="M 973.00 526.84 L 973.00 529.84"/>
</g> <!-- drawing style -->
</g> <!-- clip17 -->
</g> <!-- transform -->
<g transform="matrix(1.0000, 0.0000, 0.0000, 1.0000, -212.00, -72.000)">
<clipPath id="clip40585197-48f0-4d6a-8b9d-735b680e6dee">
  <path d="M 212.00 72.000 L 212.00 599.00 L 957.00 599.00 L 957.00 72.000 z"/>
</clipPath>
<g clip-path="url(#clip18)">
<g stroke-linecap="butt" fill="none" stroke-opacity="1.0000" stroke="#000000">
  <path d="M 1070.0 526.84 L 1070.0 529.84"/>
</g> <!-- drawing style -->
</g> <!-- clip18 -->
</g> <!-- transform -->
<g transform="matrix(1.0000, 0.0000, 0.0000, 1.0000, -212.00, -72.000)">
<clipPath id="clipea99f06a-b5c1-4647-9ff8-a1d6fc3b25f7">
  <path d="M 212.00 72.000 L 212.00 599.00 L 957.00 599.00 L 957.00 72.000 z"/>
</clipPath>
<g clip-path="url(#clip19)">
<g stroke-linecap="butt" fill="none" stroke-opacity="1.0000" stroke="#000000">
  <path d="M 1167.1 526.84 L 1167.1 529.84"/>
</g> <!-- drawing style -->
</g> <!-- clip19 -->
</g> <!-- transform -->
<g transform="matrix(1.0000, 0.0000, 0.0000, 1.0000, -212.00, -72.000)">
<clipPath id="clipa2e64880-629a-48e8-925f-ba9e8fe4f631">
  <path d="M 212.00 72.000 L 212.00 599.00 L 957.00 599.00 L 957.00 72.000 z"/>
</clipPath>
<g clip-path="url(#clip20)">
<g stroke-linecap="butt" fill="none" stroke-opacity="1.0000" stroke="#000000">
  <path d="M 1264.1 526.84 L 1264.1 529.84"/>
</g> <!-- drawing style -->
</g> <!-- clip20 -->
</g> <!-- transform -->
<g transform="matrix(1.0000, 0.0000, 0.0000, 1.0000, -212.00, -72.000)">
<clipPath id="clip1fbbc224-cca7-44ac-b720-dfba48cb5657">
  <path d="M 212.00 72.000 L 212.00 599.00 L 957.00 599.00 L 957.00 72.000 z"/>
</clipPath>
<g clip-path="url(#clip21)">
<g stroke-linecap="butt" fill="none" stroke-opacity="1.0000" stroke="#000000">
  <path d="M 290.69 817.98 L 293.69 817.98"/>
</g> <!-- drawing style -->
</g> <!-- clip21 -->
</g> <!-- transform -->
<g transform="matrix(1.0000, 0.0000, 0.0000, 1.0000, -212.00, -72.000)">
<clipPath id="clip8d4acf36-9b7a-433d-97be-20e4de89e8a9">
  <path d="M 212.00 72.000 L 212.00 599.00 L 957.00 599.00 L 957.00 72.000 z"/>
</clipPath>
<g clip-path="url(#clip22)">
<g stroke-linecap="butt" fill="none" stroke-opacity="1.0000" stroke="#000000">
  <path d="M 290.69 720.93 L 293.69 720.93"/>
</g> <!-- drawing style -->
</g> <!-- clip22 -->
</g> <!-- transform -->
<g transform="matrix(1.0000, 0.0000, 0.0000, 1.0000, -212.00, -72.000)">
<clipPath id="clip4bff5bce-580b-421b-8059-80c0c58dea77">
  <path d="M 212.00 72.000 L 212.00 599.00 L 957.00 599.00 L 957.00 72.000 z"/>
</clipPath>
<g clip-path="url(#clip23)">
<g stroke-linecap="butt" fill="none" stroke-opacity="1.0000" stroke="#000000">
  <path d="M 290.69 623.89 L 293.69 623.89"/>
</g> <!-- drawing style -->
</g> <!-- clip23 -->
</g> <!-- transform -->
<g transform="matrix(1.0000, 0.0000, 0.0000, 1.0000, -212.00, -72.000)">
<clipPath id="clip19d4cf5e-cf98-4784-8dec-3cfc2e9c0126">
  <path d="M 212.00 72.000 L 212.00 599.00 L 957.00 599.00 L 957.00 72.000 z"/>
</clipPath>
<g clip-path="url(#clip24)">
<g stroke-linecap="butt" fill="none" stroke-opacity="1.0000" stroke="#000000">
  <path d="M 290.69 429.80 L 293.69 429.80"/>
</g> <!-- drawing style -->
</g> <!-- clip24 -->
</g> <!-- transform -->
<g transform="matrix(1.0000, 0.0000, 0.0000, 1.0000, -212.00, -72.000)">
<clipPath id="clipcd93b80b-f1f7-41b0-9579-9a2feeb98553">
  <path d="M 212.00 72.000 L 212.00 599.00 L 957.00 599.00 L 957.00 72.000 z"/>
</clipPath>
<g clip-path="url(#clip25)">
<g stroke-linecap="butt" fill="none" stroke-opacity="1.0000" stroke="#000000">
  <path d="M 290.69 332.75 L 293.69 332.75"/>
</g> <!-- drawing style -->
</g> <!-- clip25 -->
</g> <!-- transform -->
<g transform="matrix(1.0000, 0.0000, 0.0000, 1.0000, -212.00, -72.000)">
<clipPath id="clip9d51b44b-9747-4ffc-96c2-ec50d20bdb66">
  <path d="M 212.00 72.000 L 212.00 599.00 L 957.00 599.00 L 957.00 72.000 z"/>
</clipPath>
<g clip-path="url(#clip26)">
<g stroke-linecap="butt" fill="none" stroke-opacity="1.0000" stroke="#000000">
  <path d="M 290.69 235.71 L 293.69 235.71"/>
</g> <!-- drawing style -->
</g> <!-- clip26 -->
</g> <!-- transform -->
<g transform="matrix(1.0000, 0.0000, 0.0000, 1.0000, -212.00, -72.000)">
<clipPath id="clip2d7384cb-7d89-4ad7-bfdc-8ef0c00c5938">
  <path d="M 212.00 72.000 L 212.00 599.00 L 957.00 599.00 L 957.00 72.000 z"/>
</clipPath>
<g clip-path="url(#clip27)">
<g stroke-linecap="butt" fill="none" stroke-opacity="1.0000" stroke="#000000">
  <path d="M 290.69 138.66 L 293.69 138.66"/>
</g> <!-- drawing style -->
</g> <!-- clip27 -->
</g> <!-- transform -->
<g transform="matrix(1.0000, 0.0000, 0.0000, 1.0000, -212.00, -72.000)">
<clipPath id="clip19beba44-e39f-41d7-8c85-dd40f6b72d85">
  <path d="M 212.00 72.000 L 212.00 599.00 L 957.00 599.00 L 957.00 72.000 z"/>
</clipPath>
<g clip-path="url(#clip28)">
<g stroke-linecap="butt" fill="none" stroke-opacity="1.0000" stroke="#000000">
  <path d="M 290.69 41.618 L 293.69 41.618"/>
</g> <!-- drawing style -->
</g> <!-- clip28 -->
</g> <!-- transform -->
<g id="misc">
</g><!-- misc -->
<g id="layer0">
<g transform="matrix(1.0000, 0.0000, 0.0000, 1.0000, -212.00, -72.000)">
<clipPath id="clipf891b984-1f26-4407-a8c8-ae9d0e028f5d">
  <path d="M 212.00 72.000 L 212.00 599.00 L 957.00 599.00 L 957.00 72.000 z"/>
</clipPath>
<g clip-path="url(#clip29)">
<g stroke-linejoin="round" stroke-dasharray="10.500,8.0000" stroke-width="2.5000" stroke-linecap="butt" fill="none" stroke-opacity=".69804" stroke="#000000">
  <path d="M 293.69 332.75 L 390.73 332.75"/>
<title>Segment f</title>
<desc>Segment f: Segment [FA]</desc>

</g> <!-- drawing style -->
</g> <!-- clip29 -->
</g> <!-- transform -->
<g transform="matrix(1.0000, 0.0000, 0.0000, 1.0000, -212.00, -72.000)">
<clipPath id="clip0cfb4ae4-f2c0-4252-a998-3ebf6c8bed9f">
  <path d="M 212.00 72.000 L 212.00 599.00 L 957.00 599.00 L 957.00 72.000 z"/>
</clipPath>
<g clip-path="url(#clip30)">
<g stroke-linejoin="round" stroke-dasharray="10.500,8.0000" stroke-width="2.5000" stroke-linecap="butt" fill="none" stroke-opacity=".69804" stroke="#000000">
  <path d="M 293.69 138.66 L 778.91 138.66"/>
<title>Segment g</title>
<desc>Segment g: Segment [GB]</desc>

</g> <!-- drawing style -->
</g> <!-- clip30 -->
</g> <!-- transform -->
<g transform="matrix(1.0000, 0.0000, 0.0000, 1.0000, -212.00, -72.000)">
<clipPath id="clipb73aceb2-1f01-4040-86cc-26af1f140332">
  <path d="M 212.00 72.000 L 212.00 599.00 L 957.00 599.00 L 957.00 72.000 z"/>
</clipPath>
<g clip-path="url(#clip31)">
<g stroke-linejoin="round" stroke-dasharray="10.500,8.0000" stroke-width="2.5000" stroke-linecap="butt" fill="none" stroke-opacity=".69804" stroke="#000000">
  <path d="M 778.91 138.66 L 778.91 332.75"/>
<title>Segment h</title>
<desc>Segment h: Segment [BC]</desc>

</g> <!-- drawing style -->
</g> <!-- clip31 -->
</g> <!-- transform -->
<g transform="matrix(1.0000, 0.0000, 0.0000, 1.0000, -212.00, -72.000)">
<clipPath id="clip9fbdb271-95fb-47a7-9cb3-99ca9cc21f83">
  <path d="M 212.00 72.000 L 212.00 599.00 L 957.00 599.00 L 957.00 72.000 z"/>
</clipPath>
<g clip-path="url(#clip32)">
<g stroke-linejoin="round" stroke-dasharray="10.500,8.0000" stroke-width="2.5000" stroke-linecap="butt" fill="none" stroke-opacity=".69804" stroke="#000000">
  <path d="M 778.91 332.75 L 390.73 332.75"/>
<title>Segment i</title>
<desc>Segment i: Segment [CA]</desc>

</g> <!-- drawing style -->
</g> <!-- clip32 -->
</g> <!-- transform -->
<g transform="matrix(1.0000, 0.0000, 0.0000, 1.0000, -212.00, -72.000)">
<clipPath id="clip8ad77f69-d525-469d-9caa-8dd1b20d5eb4">
  <path d="M 212.00 72.000 L 212.00 599.00 L 957.00 599.00 L 957.00 72.000 z"/>
</clipPath>
<g clip-path="url(#clip33)">
<g stroke-linejoin="round" stroke-width="2.5000" stroke-linecap="round" fill="none" stroke-opacity=".69804" stroke="#000000">
  <path d="M 390.73 332.75 L 778.91 138.66"/>
<title>Segment j</title>
<desc>Segment j: Segment [AB]</desc>

</g> <!-- drawing style -->
</g> <!-- clip33 -->
</g> <!-- transform -->
<g transform="matrix(1.0000, 0.0000, 0.0000, 1.0000, -212.00, -72.000)">
<clipPath id="clipb7ab2503-b54c-49dc-87d1-cfed48c7b46e">
  <path d="M 212.00 72.000 L 212.00 599.00 L 957.00 599.00 L 957.00 72.000 z"/>
</clipPath>
<g clip-path="url(#clip34)">
<g stroke-linejoin="round" stroke-dasharray="10.500,8.0000" stroke-width="2.5000" stroke-linecap="butt" fill="none" stroke-opacity=".69804" stroke="#000000">
  <path d="M 778.91 332.75 L 778.91 526.84"/>
<title>Segment k</title>
<desc>Segment k: Segment [CE]</desc>

</g> <!-- drawing style -->
</g> <!-- clip34 -->
</g> <!-- transform -->
<g transform="matrix(1.0000, 0.0000, 0.0000, 1.0000, -212.00, -72.000)">
<clipPath id="clip3c0a74f0-a104-478b-a92a-4f4db9942f0c">
  <path d="M 212.00 72.000 L 212.00 599.00 L 957.00 599.00 L 957.00 72.000 z"/>
</clipPath>
<g clip-path="url(#clip35)">
<g stroke-linejoin="round" stroke-dasharray="10.500,8.0000" stroke-width="2.5000" stroke-linecap="butt" fill="none" stroke-opacity=".69804" stroke="#000000">
  <path d="M 390.73 332.75 L 390.73 526.84"/>
<title>Segment l</title>
<desc>Segment l: Segment [AD]</desc>

</g> <!-- drawing style -->
</g> <!-- clip35 -->
</g> <!-- transform -->
<g transform="matrix(1.0000, 0.0000, 0.0000, 1.0000, -212.00, -72.000)">
<clipPath id="clip8075d145-1bb7-40ac-b95a-32131ab6a93a">
  <path d="M 212.00 72.000 L 212.00 599.00 L 957.00 599.00 L 957.00 72.000 z"/>
</clipPath>
<g clip-path="url(#clip36)">
<g stroke-linejoin="round" stroke-width="1.5000" stroke-linecap="round" fill="none" stroke-opacity=".69804" stroke="#000000">
  <path d="M 390.73 390.98 L 763.91 390.98"/>
<title>Vecteur u</title>
<desc>Vecteur u: Vecteur(H, I)</desc>

</g> <!-- drawing style -->
</g> <!-- clip36 -->
</g> <!-- transform -->
<g transform="matrix(1.0000, 0.0000, 0.0000, 1.0000, -212.00, -72.000)">
<clipPath id="clip08eada0c-e39d-4baf-97ca-6ddc66255121">
  <path d="M 212.00 72.000 L 212.00 599.00 L 957.00 599.00 L 957.00 72.000 z"/>
</clipPath>
<g clip-path="url(#clip37)">
<g fill-opacity=".69804" fill-rule="evenodd" stroke="none" fill="#000000">
  <path d="M 778.91 390.98 L 763.91 394.73 L 763.91 387.23 z"/>
<title>Vecteur u</title>
<desc>Vecteur u: Vecteur(H, I)</desc>

</g> <!-- drawing style -->
</g> <!-- clip37 -->
</g> <!-- transform -->
<g transform="matrix(1.0000, 0.0000, 0.0000, 1.0000, -212.00, -72.000)">
<clipPath id="clip68cbecd9-16cc-4ac7-905a-fb318345edb7">
  <path d="M 212.00 72.000 L 212.00 599.00 L 957.00 599.00 L 957.00 72.000 z"/>
</clipPath>
<g clip-path="url(#clip38)">
<g stroke-linejoin="round" stroke-width="1.5000" stroke-linecap="round" fill="none" stroke-opacity=".69804" stroke="#000000">
  <path d="M 778.91 390.98 L 405.73 390.98"/>
<title>Vecteur v</title>
<desc>Vecteur v: Vecteur(I, H)</desc>

</g> <!-- drawing style -->
</g> <!-- clip38 -->
</g> <!-- transform -->
<g transform="matrix(1.0000, 0.0000, 0.0000, 1.0000, -212.00, -72.000)">
<clipPath id="clip7b2a3a21-aaf2-4d08-b538-9d3f8f6b8994">
  <path d="M 212.00 72.000 L 212.00 599.00 L 957.00 599.00 L 957.00 72.000 z"/>
</clipPath>
<g clip-path="url(#clip39)">
<g fill-opacity=".69804" fill-rule="evenodd" stroke="none" fill="#000000">
  <path d="M 390.73 390.98 L 405.73 387.23 L 405.73 394.73 z"/>
<title>Vecteur v</title>
<desc>Vecteur v: Vecteur(I, H)</desc>

</g> <!-- drawing style -->
</g> <!-- clip39 -->
</g> <!-- transform -->
<g transform="matrix(1.0000, 0.0000, 0.0000, 1.0000, -212.00, -72.000)">
<clipPath id="clip8e0859c5-67bf-4bd5-af80-1fb1b728fc67">
  <path d="M 212.00 72.000 L 212.00 599.00 L 957.00 599.00 L 957.00 72.000 z"/>
</clipPath>
<g clip-path="url(#clip40)">
<g stroke-linejoin="round" stroke-width="1.5000" stroke-linecap="round" fill="none" stroke-opacity=".69804" stroke="#000000">
  <path d="M 837.14 332.75 L 837.14 153.66"/>
<title>Vecteur w</title>
<desc>Vecteur w: Vecteur(J, K)</desc>

</g> <!-- drawing style -->
</g> <!-- clip40 -->
</g> <!-- transform -->
<g transform="matrix(1.0000, 0.0000, 0.0000, 1.0000, -212.00, -72.000)">
<clipPath id="clip542fe096-20e5-4acc-921e-2fa3394efbfa">
  <path d="M 212.00 72.000 L 212.00 599.00 L 957.00 599.00 L 957.00 72.000 z"/>
</clipPath>
<g clip-path="url(#clip41)">
<g fill-opacity=".69804" fill-rule="evenodd" stroke="none" fill="#000000">
  <path d="M 837.14 138.66 L 840.89 153.66 L 833.39 153.66 z"/>
<title>Vecteur w</title>
<desc>Vecteur w: Vecteur(J, K)</desc>

</g> <!-- drawing style -->
</g> <!-- clip41 -->
</g> <!-- transform -->
<g transform="matrix(1.0000, 0.0000, 0.0000, 1.0000, -212.00, -72.000)">
<clipPath id="clipc5d9424a-8f54-43a4-813e-70e8845a6bb1">
  <path d="M 212.00 72.000 L 212.00 599.00 L 957.00 599.00 L 957.00 72.000 z"/>
</clipPath>
<g clip-path="url(#clip42)">
<g stroke-linejoin="round" stroke-width="1.5000" stroke-linecap="round" fill="none" stroke-opacity=".69804" stroke="#000000">
  <path d="M 837.14 138.66 L 837.14 317.75"/>
<title>Vecteur a</title>
<desc>Vecteur a: Vecteur(K, J)</desc>

</g> <!-- drawing style -->
</g> <!-- clip42 -->
</g> <!-- transform -->
<g transform="matrix(1.0000, 0.0000, 0.0000, 1.0000, -212.00, -72.000)">
<clipPath id="clip84283e09-008d-4f2e-9d53-8b65a27cabfb">
  <path d="M 212.00 72.000 L 212.00 599.00 L 957.00 599.00 L 957.00 72.000 z"/>
</clipPath>
<g clip-path="url(#clip43)">
<g fill-opacity=".69804" fill-rule="evenodd" stroke="none" fill="#000000">
  <path d="M 837.14 332.75 L 833.39 317.75 L 840.89 317.75 z"/>
<title>Vecteur a</title>
<desc>Vecteur a: Vecteur(K, J)</desc>

</g> <!-- drawing style -->
</g> <!-- clip43 -->
</g> <!-- transform -->
<g transform="matrix(1.0000, 0.0000, 0.0000, 1.0000, -212.00, -72.000)">
<clipPath id="clipa9ef37a2-49b7-4f39-b81d-473225572635">
  <path d="M 212.00 72.000 L 212.00 599.00 L 957.00 599.00 L 957.00 72.000 z"/>
</clipPath>
<g clip-path="url(#clip44)">
<g stroke-width="2.5000" fill="none" stroke-opacity="1.0000" stroke="#000000">
  <path d="M 385.73 327.75 L 395.73 337.75"/>
<title>Point A</title>
<desc>A = (0.5, 1)</desc>

</g> <!-- drawing style -->
</g> <!-- clip44 -->
</g> <!-- transform -->
<g transform="matrix(1.0000, 0.0000, 0.0000, 1.0000, -212.00, -72.000)">
<clipPath id="clipabdf88ec-a45a-4b2d-9d20-1c859e9352d9">
  <path d="M 212.00 72.000 L 212.00 599.00 L 957.00 599.00 L 957.00 72.000 z"/>
</clipPath>
<g clip-path="url(#clip45)">
<g stroke-width="2.5000" fill="none" stroke-opacity="1.0000" stroke="#000000">
  <path d="M 385.73 337.75 L 395.73 327.75"/>
<title>Point A</title>
<desc>A = (0.5, 1)</desc>

</g> <!-- drawing style -->
</g> <!-- clip45 -->
</g> <!-- transform -->
<g transform="matrix(1.0000, 0.0000, 0.0000, 1.0000, -212.00, -72.000)">
<clipPath id="clipe3be063b-b48e-4334-bdbe-236aa36b31c6">
  <path d="M 212.00 72.000 L 212.00 599.00 L 957.00 599.00 L 957.00 72.000 z"/>
</clipPath>
<g clip-path="url(#clip46)">
<g stroke-width="2.5000" fill="none" stroke-opacity="1.0000" stroke="#000000">
  <path d="M 773.91 133.66 L 783.91 143.66"/>
<title>Point B</title>
<desc>B = (2.5, 2)</desc>

</g> <!-- drawing style -->
</g> <!-- clip46 -->
</g> <!-- transform -->
<g transform="matrix(1.0000, 0.0000, 0.0000, 1.0000, -212.00, -72.000)">
<clipPath id="clipa304ac0a-bf4f-41fe-bb79-5dd101856c22">
  <path d="M 212.00 72.000 L 212.00 599.00 L 957.00 599.00 L 957.00 72.000 z"/>
</clipPath>
<g clip-path="url(#clip47)">
<g stroke-width="2.5000" fill="none" stroke-opacity="1.0000" stroke="#000000">
  <path d="M 773.91 143.66 L 783.91 133.66"/>
<title>Point B</title>
<desc>B = (2.5, 2)</desc>

</g> <!-- drawing style -->
</g> <!-- clip47 -->
</g> <!-- transform -->
<g transform="matrix(.25000, 0.0000, 0.0000, .25000, 46.000, 259.77)">
<clipPath id="clipf90a9090-acb1-41d2-aefd-a72e414209bf">
  <path d="M -184.00 -1039.1 L -184.00 1068.9 L 2796.0 1068.9 L 2796.0 -1039.1 z"/>
</clipPath>
<g clip-path="url(#clip48)">
<text fill-opacity="1.0000" font-style="normal" font-family="Jlm_cmmi10" font-weight="normal" stroke="none" fill="#000000" font-size="100.00" x="0" y="0">y</text>
</g> <!-- clip48 -->
</g> <!-- transform -->
<g transform="matrix(.17500, 0.0000, 0.0000, .17500, 58.250, 263.52)">
<clipPath id="clip9f312849-fda4-4171-8423-f21c96dd9b7e">
  <path d="M -332.86 -1505.9 L -332.86 1505.6 L 3924.3 1505.6 L 3924.3 -1505.9 z"/>
</clipPath>
<g clip-path="url(#clip49)">
<text fill-opacity="1.0000" font-style="normal" font-family="Jlm_cmmi10" font-weight="normal" stroke="none" fill="#000000" font-size="100.00" x="0" y="0">A</text>
</g> <!-- clip49 -->
</g> <!-- transform -->
<g transform="matrix(.25000, 0.0000, 0.0000, .25000, 52.000, 71.775)">
<clipPath id="clipfd9dbd20-836d-47bb-b9e2-798248d89009">
  <path d="M -208.00 -287.10 L -208.00 1820.9 L 2772.0 1820.9 L 2772.0 -287.10 z"/>
</clipPath>
<g clip-path="url(#clip50)">
<text fill-opacity="1.0000" font-style="normal" font-family="Jlm_cmmi10" font-weight="normal" stroke="none" fill="#000000" font-size="100.00" x="0" y="0">y</text>
</g> <!-- clip50 -->
</g> <!-- transform -->
<g transform="matrix(.17500, 0.0000, 0.0000, .17500, 64.250, 75.525)">
<clipPath id="clip28bd2ea6-4278-4714-acf2-b7f1c3e60e46">
  <path d="M -367.14 -431.57 L -367.14 2579.9 L 3890.0 2579.9 L 3890.0 -431.57 z"/>
</clipPath>
<g clip-path="url(#clip51)">
<text fill-opacity="1.0000" font-style="normal" font-family="Jlm_cmmi10" font-weight="normal" stroke="none" fill="#000000" font-size="100.00" x="0" y="0">B</text>
</g> <!-- clip51 -->
</g> <!-- transform -->
<g transform="matrix(.25000, 0.0000, 0.0000, .25000, 171.00, 481.77)">
<clipPath id="clip82a776e9-7246-4b65-9a76-5541f4a737d1">
  <path d="M -684.00 -1927.1 L -684.00 180.90 L 2296.0 180.90 L 2296.0 -1927.1 z"/>
</clipPath>
<g clip-path="url(#clip52)">
<text fill-opacity="1.0000" font-style="normal" font-family="Jlm_cmmi10" font-weight="normal" stroke="none" fill="#000000" font-size="100.00" x="0" y="0">x</text>
</g> <!-- clip52 -->
</g> <!-- transform -->
<g transform="matrix(.17500, 0.0000, 0.0000, .17500, 185.30, 485.52)">
<clipPath id="clipd60356ad-7547-403b-bf54-7ab439e16878">
  <path d="M -1058.9 -2774.4 L -1058.9 237.00 L 3198.3 237.00 L 3198.3 -2774.4 z"/>
</clipPath>
<g clip-path="url(#clip53)">
<text fill-opacity="1.0000" font-style="normal" font-family="Jlm_cmmi10" font-weight="normal" stroke="none" fill="#000000" font-size="100.00" x="0" y="0">A</text>
</g> <!-- clip53 -->
</g> <!-- transform -->
<g transform="matrix(.25000, 0.0000, 0.0000, .25000, 557.00, 480.77)">
<clipPath id="clipfb9e6a05-2033-4049-b0f3-939f9305a5f9">
  <path d="M -2228.0 -1923.1 L -2228.0 184.90 L 752.00 184.90 L 752.00 -1923.1 z"/>
</clipPath>
<g clip-path="url(#clip54)">
<text fill-opacity="1.0000" font-style="normal" font-family="Jlm_cmmi10" font-weight="normal" stroke="none" fill="#000000" font-size="100.00" x="0" y="0">x</text>
</g> <!-- clip54 -->
</g> <!-- transform -->
<g transform="matrix(.17500, 0.0000, 0.0000, .17500, 571.30, 484.52)">
<clipPath id="clip603a0fd5-baae-4b6f-944d-bfab115772d4">
  <path d="M -3264.6 -2768.7 L -3264.6 242.71 L 992.57 242.71 L 992.57 -2768.7 z"/>
</clipPath>
<g clip-path="url(#clip55)">
<text fill-opacity="1.0000" font-style="normal" font-family="Jlm_cmmi10" font-weight="normal" stroke="none" fill="#000000" font-size="100.00" x="0" y="0">B</text>
</g> <!-- clip55 -->
</g> <!-- transform -->
<g transform="matrix(.25000, 0.0000, 0.0000, .25000, 151.00, 293.07)">
<clipPath id="clipc68b0352-4717-45f5-9d13-f161d5e2cd30">
  <path d="M -604.00 -1172.3 L -604.00 935.70 L 2376.0 935.70 L 2376.0 -1172.3 z"/>
</clipPath>
<g clip-path="url(#clip56)">
<text fill-opacity="1.0000" font-style="normal" font-family="Jlm_cmmi10" font-weight="normal" stroke="none" fill="#000000" font-size="100.00" x="0" y="0">A</text>
</g> <!-- clip56 -->
</g> <!-- transform -->
<g transform="matrix(.25000, 0.0000, 0.0000, .25000, 582.00, 65.075)">
<clipPath id="clip694fad46-f981-417c-97bf-e2fbb8c784db">
  <path d="M -2328.0 -260.30 L -2328.0 1847.7 L 652.00 1847.7 L 652.00 -260.30 z"/>
</clipPath>
<g clip-path="url(#clip57)">
<text fill-opacity="1.0000" font-style="normal" font-family="Jlm_cmmi10" font-weight="normal" stroke="none" fill="#000000" font-size="100.00" x="0" y="0">B</text>
</g> <!-- clip57 -->
</g> <!-- transform -->
<g transform="matrix(.25000, 0.0000, 0.0000, .25000, 322.00, 354.57)">
<clipPath id="clip29689020-8915-433a-8995-e68c9b38d059">
  <path d="M -1288.0 -1418.3 L -1288.0 689.70 L 1692.0 689.70 L 1692.0 -1418.3 z"/>
</clipPath>
<g clip-path="url(#clip58)">
<text fill-opacity="1.0000" font-style="normal" font-family="Jlm_cmmi10" font-weight="normal" stroke="none" fill="#000000" font-size="100.00" x="0" y="0">x</text>
</g> <!-- clip58 -->
</g> <!-- transform -->
<g transform="matrix(.17500, 0.0000, 0.0000, .17500, 336.30, 358.32)">
<clipPath id="clip48dbcb68-1a39-49ec-9c07-aa1e33e1d915">
  <path d="M -1921.7 -2047.6 L -1921.7 963.86 L 2335.4 963.86 L 2335.4 -2047.6 z"/>
</clipPath>
<g clip-path="url(#clip59)">
<text fill-opacity="1.0000" font-style="normal" font-family="Jlm_cmmi10" font-weight="normal" stroke="none" fill="#000000" font-size="100.00" x="0" y="0">B</text>
</g> <!-- clip59 -->
</g> <!-- transform -->
<g transform="matrix(.25000, 0.0000, 0.0000, .25000, 356.01, 354.57)">
<clipPath id="clip3c9590e3-54f7-4e9b-9576-7c847a38359e">
  <path d="M -1424.1 -1418.3 L -1424.1 689.70 L 1555.9 689.70 L 1555.9 -1418.3 z"/>
</clipPath>
<g clip-path="url(#clip60)">
<text fill-opacity="1.0000" font-style="normal" font-family="Jlm_cmsy10" font-weight="normal" stroke="none" fill="#000000" font-size="100.00" x="0" y="0">-</text>
</g> <!-- clip60 -->
</g> <!-- transform -->
<g transform="matrix(.25000, 0.0000, 0.0000, .25000, 381.02, 354.57)">
<clipPath id="clip7f3645e2-81db-44fd-9729-8ee12fce0431">
  <path d="M -1524.1 -1418.3 L -1524.1 689.70 L 1455.9 689.70 L 1455.9 -1418.3 z"/>
</clipPath>
<g clip-path="url(#clip61)">
<text fill-opacity="1.0000" font-style="normal" font-family="Jlm_cmmi10" font-weight="normal" stroke="none" fill="#000000" font-size="100.00" x="0" y="0">x</text>
</g> <!-- clip61 -->
</g> <!-- transform -->
<g transform="matrix(.17500, 0.0000, 0.0000, .17500, 395.32, 358.32)">
<clipPath id="clip4a603fc7-2c6b-47db-afab-402206108994">
  <path d="M -2259.0 -2047.6 L -2259.0 963.86 L 1998.2 963.86 L 1998.2 -2047.6 z"/>
</clipPath>
<g clip-path="url(#clip62)">
<text fill-opacity="1.0000" font-style="normal" font-family="Jlm_cmmi10" font-weight="normal" stroke="none" fill="#000000" font-size="100.00" x="0" y="0">A</text>
</g> <!-- clip62 -->
</g> <!-- transform -->
<g transform="matrix(.25000, 0.0000, 0.0000, .25000, 643.00, 163.57)">
<clipPath id="clipd2056658-ec55-4741-9187-0626a6f8ca34">
  <path d="M -2572.0 -654.30 L -2572.0 1453.7 L 408.00 1453.7 L 408.00 -654.30 z"/>
</clipPath>
<g clip-path="url(#clip63)">
<text fill-opacity="1.0000" font-style="normal" font-family="Jlm_cmmi10" font-weight="normal" stroke="none" fill="#000000" font-size="100.00" x="0" y="0">y</text>
</g> <!-- clip63 -->
</g> <!-- transform -->
<g transform="matrix(.17500, 0.0000, 0.0000, .17500, 655.25, 167.33)">
<clipPath id="clipe6a21489-6de6-4d5d-bd89-5b43d7537146">
  <path d="M -3744.3 -956.14 L -3744.3 2055.3 L 512.86 2055.3 L 512.86 -956.14 z"/>
</clipPath>
<g clip-path="url(#clip64)">
<text fill-opacity="1.0000" font-style="normal" font-family="Jlm_cmmi10" font-weight="normal" stroke="none" fill="#000000" font-size="100.00" x="0" y="0">B</text>
</g> <!-- clip64 -->
</g> <!-- transform -->
<g transform="matrix(.25000, 0.0000, 0.0000, .25000, 674.96, 163.57)">
<clipPath id="clip5c7de100-6cf5-4c5d-b2f0-2ebd5f38b19d">
  <path d="M -2699.9 -654.30 L -2699.9 1453.7 L 280.15 1453.7 L 280.15 -654.30 z"/>
</clipPath>
<g clip-path="url(#clip65)">
<text fill-opacity="1.0000" font-style="normal" font-family="Jlm_cmsy10" font-weight="normal" stroke="none" fill="#000000" font-size="100.00" x="0" y="0">-</text>
</g> <!-- clip65 -->
</g> <!-- transform -->
<g transform="matrix(.25000, 0.0000, 0.0000, .25000, 699.97, 163.57)">
<clipPath id="clip0e505575-f11b-41af-bfe4-d36552625c82">
  <path d="M -2799.9 -654.30 L -2799.9 1453.7 L 180.13 1453.7 L 180.13 -654.30 z"/>
</clipPath>
<g clip-path="url(#clip66)">
<text fill-opacity="1.0000" font-style="normal" font-family="Jlm_cmmi10" font-weight="normal" stroke="none" fill="#000000" font-size="100.00" x="0" y="0">y</text>
</g> <!-- clip66 -->
</g> <!-- transform -->
<g transform="matrix(.17500, 0.0000, 0.0000, .17500, 712.22, 167.33)">
<clipPath id="clip6f1b70d4-d76c-45d8-a226-8163ffa061c4">
  <path d="M -4069.8 -956.14 L -4069.8 2055.3 L 187.32 2055.3 L 187.32 -956.14 z"/>
</clipPath>
<g clip-path="url(#clip67)">
<text fill-opacity="1.0000" font-style="normal" font-family="Jlm_cmmi10" font-weight="normal" stroke="none" fill="#000000" font-size="100.00" x="0" y="0">A</text>
</g> <!-- clip67 -->
</g> <!-- transform -->
</g><!-- layer0 -->
<defs>
<font id="Jlm_cmsy10" horiz-adv-x="0" >
<font-face font-family="Jlm_cmsy10" font-weight="normal" font-style="normal" font-size="100.00" units-per-em="100.00" ascent="79.992676" descent="19.998169" />
<missing-glyph horiz-adv-x="74.993"  d="M 12.500 -0.0000 L 12.500 62.500 L 62.500 62.500 L 62.500 -0.0000 L 12.500 -0.0000 z M 60.906 1.5938 L 60.906 60.906 L 14.094 60.906 L 14.094 1.5938 L 60.906 1.5938 z"/>
<glyph unicode="-" horiz-adv-x="77.693" d="M 66.094 23.000 L 11.594 23.000 Q 8.4062 23.000 8.2969 25.000 Q 8.2969 27.000 11.594 27.000 L 66.094 27.000 Q 69.297 27.000 69.406 25.000 Q 69.406 23.000 66.094 23.000 z"/>
</font>
<font id="Jlm_cmmi10" horiz-adv-x="0" >
<font-face font-family="Jlm_cmmi10" font-weight="normal" font-style="normal" font-size="100.00" units-per-em="100.00" ascent="79.992676" descent="19.998169" />
<missing-glyph horiz-adv-x="74.993"  d="M 12.500 -0.0000 L 12.500 62.500 L 62.500 62.500 L 62.500 -0.0000 L 12.500 -0.0000 z M 60.906 1.5938 L 60.906 60.906 L 14.094 60.906 L 14.094 1.5938 L 60.906 1.5938 z"/>
<glyph unicode="&#x0079;" horiz-adv-x="48.996" d="M 48.594 38.094 L 39.000 -.093750 Q 36.594 -9.9062 28.297 -16.000 Q 22.203 -20.500 15.594 -20.500 Q 8.9062 -20.500 6.0938 -15.906 Q 5.0000 -14.000 5.0000 -11.797 Q 5.0000 -6.7031 9.0938 -5.5000 Q 9.9062 -5.2969 10.594 -5.2969 Q 13.797 -5.2969 14.203 -8.0938 Q 14.297 -8.4062 14.297 -8.7969 Q 14.297 -11.094 12.297 -12.906 Q 10.906 -14.094 8.0000 -14.094 Q 9.7969 -18.297 15.594 -18.297 Q 21.797 -18.297 26.594 -12.000 Q 30.500 -6.7969 32.797 2.0938 Q 32.906 2.5000 33.094 3.4062 Q 28.594 -1.0938 23.000 -1.0938 Q 15.000 -1.0938 12.094 4.7969 Q 10.797 7.4062 10.797 10.797 Q 10.797 16.297 16.094 30.500 Q 16.297 31.094 16.594 31.797 Q 18.297 36.406 18.297 38.797 Q 18.297 42.000 15.797 42.000 Q 10.297 42.000 6.7969 32.906 L 6.7969 32.797 Q 6.2031 31.297 5.7031 29.594 Q 4.5938 27.906 4.0938 27.797 Q 2.9062 27.797 2.9062 28.797 Q 2.9062 30.594 5.0000 35.094 Q 9.4062 44.203 16.094 44.203 Q 21.406 44.203 23.500 39.703 Q 24.297 38.000 24.297 36.000 Q 24.297 33.906 22.297 28.797 Q 17.203 15.594 17.203 9.2031 Q 17.203 1.0938 23.406 1.0938 Q 29.203 1.0938 33.500 7.2969 Q 34.500 8.7969 34.703 9.5938 L 39.203 27.594 Q 39.906 30.906 41.203 35.594 Q 42.203 39.906 42.594 41.000 Q 43.906 43.094 46.094 43.094 Q 48.594 42.594 49.000 40.406 Q 49.000 39.500 48.594 38.094 z"/>
<glyph unicode="&#x0078;" horiz-adv-x="57.095" d="M 33.406 30.203 L 30.000 16.500 Q 28.297 9.7031 28.297 7.7031 Q 28.297 2.5000 32.000 1.4062 Q 32.797 1.0938 33.797 1.0938 Q 38.797 1.0938 42.906 6.0938 Q 45.594 9.2969 47.094 14.203 Q 47.406 15.297 48.406 15.297 Q 49.594 15.297 49.594 14.297 Q 49.594 11.797 46.500 7.0938 Q 41.094 -1.0938 33.594 -1.0938 Q 26.797 -1.0938 23.703 4.5938 Q 23.094 5.5000 22.797 6.5000 Q 20.406 1.7031 16.203 -.20312 Q 14.297 -1.0938 12.297 -1.0938 Q 6.2969 -1.0938 3.9062 2.4062 Q 2.9062 3.7031 2.9062 5.5000 Q 2.9062 9.2031 6.0938 10.703 Q 7.2031 11.297 8.4062 11.297 Q 11.406 11.297 12.000 8.7969 Q 12.094 8.2969 12.094 7.7969 Q 12.094 4.4062 8.7031 2.7969 Q 8.0938 2.5000 7.4062 2.4062 Q 9.5000 1.0938 12.406 1.0938 Q 17.703 1.0938 20.797 8.2031 Q 21.406 9.7031 21.906 11.500 Q 27.297 31.906 27.297 35.297 Q 26.703 41.500 21.906 42.000 Q 16.703 42.000 12.406 36.703 L 12.406 36.594 Q 12.406 36.500 12.297 36.500 Q 10.797 34.500 9.5938 31.906 Q 9.0938 30.703 8.7031 29.500 L 8.5000 28.906 Q 8.2969 27.797 7.2031 27.797 Q 6.0000 27.797 6.0000 28.797 Q 6.0000 31.297 9.2031 36.000 Q 14.594 44.203 22.094 44.203 Q 29.797 44.203 32.906 36.594 Q 36.094 42.797 41.406 44.000 Q 42.406 44.203 43.406 44.203 Q 49.297 44.203 51.703 40.906 Q 52.703 39.500 52.703 37.594 Q 52.703 33.500 49.000 32.094 Q 48.094 31.797 47.297 31.797 Q 44.203 31.797 43.594 34.500 Q 43.500 34.906 43.500 35.297 Q 43.500 38.297 46.406 40.000 Q 47.297 40.500 48.297 40.703 Q 46.203 42.000 43.297 42.000 Q 36.500 42.000 33.703 31.406 Q 33.500 30.797 33.406 30.203 z"/>
<glyph unicode="&#x0042;" horiz-adv-x="75.793" d="M 16.000 7.7969 L 29.406 61.500 Q 29.797 63.094 29.797 63.406 Q 29.797 64.594 28.203 64.906 L 28.094 64.906 L 28.000 64.906 Q 27.703 64.906 27.094 65.000 Q 25.406 65.203 23.297 65.203 Q 20.703 65.203 20.500 66.297 Q 20.500 68.094 22.000 68.297 L 22.094 68.297 L 22.203 68.297 L 23.406 68.297 L 57.000 68.297 Q 68.500 68.297 73.406 61.500 Q 75.594 58.297 75.594 54.500 Q 75.594 46.406 66.594 40.406 Q 66.500 40.406 66.406 40.297 Q 61.094 36.906 54.703 35.703 Q 64.906 34.500 68.703 27.703 Q 70.203 24.906 70.203 21.594 Q 70.203 14.297 63.203 7.9062 L 63.094 7.7969 Q 54.500 -0.0000 42.594 -0.0000 L 6.9062 -0.0000 Q 4.4062 -0.0000 4.2031 1.0938 Q 4.2031 2.9062 5.7031 3.0938 L 6.9062 3.0938 Q 13.406 3.0938 14.703 4.5000 Q 15.297 5.2031 15.906 7.2969 Q 15.906 7.4062 16.000 7.7969 z M 31.094 36.594 L 45.703 36.594 Q 55.594 36.594 62.000 43.797 Q 66.500 48.906 66.500 54.906 Q 66.500 62.203 60.500 64.406 Q 58.406 65.203 55.594 65.203 L 42.703 65.203 Q 39.094 65.203 38.297 64.203 L 38.297 64.203 L 38.297 64.094 L 38.203 64.094 L 38.203 64.000 Q 37.797 63.406 37.297 61.406 L 31.094 36.594 z M 26.594 3.0938 L 40.203 3.0938 Q 49.797 3.0938 56.094 10.297 Q 60.906 15.906 60.906 22.703 Q 60.906 30.000 55.703 33.000 Q 53.094 34.406 49.406 34.406 L 30.500 34.406 L 23.594 6.5000 Q 23.094 4.7031 23.094 4.2031 Q 23.094 3.4062 24.000 3.2031 L 24.000 3.2031 L 24.000 3.2031 L 24.406 3.2031 Q 25.000 3.0938 26.594 3.0938 z"/>
<glyph unicode="&#x0041;" horiz-adv-x="74.993" d="M 17.906 11.500 L 52.703 69.906 Q 53.703 71.500 55.297 71.594 Q 56.797 71.594 57.000 70.594 Q 57.094 70.297 57.203 69.203 L 63.297 6.7031 Q 63.594 4.2031 64.500 3.7031 L 64.594 3.7031 L 64.594 3.7031 L 64.594 3.7031 L 64.594 3.7031 L 64.594 3.5938 Q 65.797 3.0938 69.797 3.0938 Q 72.000 3.0938 72.094 2.0000 Q 72.094 -0.0000 70.297 -0.0000 L 59.094 .29688 L 59.000 .29688 L 46.594 -0.0000 L 46.500 -0.0000 Q 45.094 -0.0000 45.094 1.0938 Q 45.906 3.0000 47.500 3.0938 Q 54.703 3.0938 54.703 6.4062 Q 54.703 6.2969 53.094 23.094 L 28.000 23.094 L 20.406 10.297 Q 19.000 7.7969 19.000 6.5938 Q 19.000 3.5000 23.703 3.0938 Q 25.297 3.0938 25.297 1.9062 Q 25.297 -0.0000 23.406 -0.0000 L 13.797 .29688 L 13.406 .29688 L 5.0000 -0.0000 L 4.7969 -0.0000 Q 3.5000 -0.0000 3.5000 1.0938 Q 3.5000 2.9062 5.0000 3.0000 L 5.0000 3.0938 L 5.5938 3.0938 Q 11.906 3.5000 15.906 8.5000 Q 16.906 9.7969 17.906 11.500 z M 29.906 26.203 L 52.797 26.203 L 49.594 59.203 L 29.906 26.203 z"/>
</font>

</defs> <!-- font definitions -->
</g> <!-- default stroke -->
</svg> <!-- bounding box -->
