<?xml version="1.0" encoding="UTF-8" standalone="no"?>
<!DOCTYPE svg PUBLIC "-//W3C//DTD SVG 1.1//EN" "http://www.w3.org/Graphics/SVG/1.1/DTD/svg11.dtd">
<!-- Generated by graphviz version 2.40.1 (20161225.0304)
 -->
<!-- Title: automate Pages: 1 -->
<svg width="398pt" height="106pt" viewBox="0.00 0.00 398.43 105.80" xmlns="http://www.w3.org/2000/svg" xmlns:xlink="http://www.w3.org/1999/xlink">
<g id="graph0" class="graph" transform="scale(1 1) rotate(0) translate(4 101.8)">
<title>automate</title>
<polygon fill="#ffffff" stroke="transparent" points="-4,4 -4,-101.8 394.4292,-101.8 394.4292,4 -4,4"/>
<!-- 0 -->
<g id="node1" class="node">
<title>0</title>
<ellipse fill="none" stroke="#000000" cx="113" cy="-58" rx="18" ry="18"/>
<ellipse fill="none" stroke="#000000" cx="113" cy="-58" rx="22" ry="22"/>
<text text-anchor="middle" x="113" y="-53.8" font-family="Helvetica,Arial,sans-serif" font-size="14.00" fill="#000000">0</text>
</g>
<!-- 2 -->
<g id="node2" class="node">
<title>2</title>
<ellipse fill="none" stroke="#000000" cx="277.4292" cy="-62" rx="18" ry="18"/>
<ellipse fill="none" stroke="#000000" cx="277.4292" cy="-62" rx="22" ry="22"/>
<text text-anchor="middle" x="277.4292" y="-57.8" font-family="Helvetica,Arial,sans-serif" font-size="14.00" fill="#000000">2</text>
</g>
<!-- 0&#45;&gt;2 -->
<g id="edge4" class="edge">
<title>0-&gt;2</title>
<path fill="none" stroke="#000000" d="M133.4114,-66.51C145.8325,-71.2225 162.1564,-76.6003 177.2146,-79 200.6621,-82.7366 227.1449,-77.8496 246.9956,-72.3716"/>
<polygon fill="#000000" stroke="#000000" points="248.1236,-75.6879 256.7204,-69.4955 246.1384,-68.9753 248.1236,-75.6879"/>
<text text-anchor="middle" x="195.2146" y="-85.2" font-family="Consolas" font-size="14.00" fill="#000000">b</text>
</g>
<!-- 1 -->
<g id="node3" class="node">
<title>1</title>
<ellipse fill="none" stroke="#000000" cx="195.2146" cy="-18" rx="18" ry="18"/>
<text text-anchor="middle" x="195.2146" y="-13.8" font-family="Helvetica,Arial,sans-serif" font-size="14.00" fill="#000000">1</text>
</g>
<!-- 0&#45;&gt;1 -->
<g id="edge1" class="edge">
<title>0-&gt;1</title>
<path fill="none" stroke="#000000" d="M133.2871,-48.4465C141.3711,-44.6125 150.7494,-40.1307 159.2146,-36 162.6843,-34.3069 166.3331,-32.5062 169.9222,-30.7233"/>
<polygon fill="#000000" stroke="#000000" points="171.7358,-33.7298 179.1189,-26.131 168.6086,-27.4671 171.7358,-33.7298"/>
<text text-anchor="middle" x="156.1073" y="-43.2" font-family="Consolas" font-size="14.00" fill="#000000">a</text>
</g>
<!-- 4 -->
<g id="node5" class="node">
<title>4</title>
<text text-anchor="middle" x="363.4292" y="-57.8" font-family="Helvetica,Arial,sans-serif" font-size="14.00" fill="#000000">fin</text>
</g>
<!-- 2&#45;&gt;4 -->
<g id="edge7" class="edge">
<title>2-&gt;4</title>
<path fill="none" stroke="#000000" d="M299.5763,-62C307.589,-62 316.8762,-62 325.8442,-62"/>
<polygon fill="#000000" stroke="#000000" points="326.1297,-65.5001 336.1297,-62 326.1296,-58.5001 326.1297,-65.5001"/>
</g>
<!-- 1&#45;&gt;0 -->
<g id="edge2" class="edge">
<title>1-&gt;0</title>
<path fill="none" stroke="#000000" d="M177.7477,-13.2933C169.8921,-12.0559 160.6807,-11.8654 153,-15.2 144.8195,-18.7516 137.5501,-24.8917 131.5273,-31.4304"/>
<polygon fill="#000000" stroke="#000000" points="128.7915,-29.2458 125.05,-39.158 134.1562,-33.7425 128.7915,-29.2458"/>
<text text-anchor="middle" x="156.1073" y="-20.2" font-family="Consolas" font-size="14.00" fill="#000000">c</text>
</g>
<!-- 1&#45;&gt;2 -->
<g id="edge3" class="edge">
<title>1-&gt;2</title>
<path fill="none" stroke="#000000" d="M211.4576,-26.693C222.0482,-32.3609 236.1658,-39.9165 248.6233,-46.5835"/>
<polygon fill="#000000" stroke="#000000" points="247.2717,-49.8299 257.74,-51.4627 250.5748,-43.6582 247.2717,-49.8299"/>
<text text-anchor="middle" x="234.3219" y="-44.2" font-family="Consolas" font-size="14.00" fill="#000000">a</text>
</g>
<!-- 1&#45;&gt;1 -->
<g id="edge5" class="edge">
<title>1-&gt;1</title>
<path fill="none" stroke="#000000" d="M188.481,-35.0373C187.1068,-44.8579 189.3513,-54 195.2146,-54 198.8792,-54 201.1301,-50.4289 201.9675,-45.3529"/>
<polygon fill="#000000" stroke="#000000" points="205.467,-45.0307 201.9482,-35.0373 198.467,-45.0439 205.467,-45.0307"/>
<text text-anchor="middle" x="195.2146" y="-58.2" font-family="Consolas" font-size="14.00" fill="#000000">b</text>
</g>
<!-- 3 -->
<g id="node4" class="node">
<title>3</title>
<text text-anchor="middle" x="27" y="-53.8" font-family="Helvetica,Arial,sans-serif" font-size="14.00" fill="#000000">début</text>
</g>
<!-- 3&#45;&gt;0 -->
<g id="edge6" class="edge">
<title>3-&gt;0</title>
<path fill="none" stroke="#000000" d="M54.2109,-58C62.6073,-58 71.9364,-58 80.6441,-58"/>
<polygon fill="#000000" stroke="#000000" points="80.8529,-61.5001 90.8529,-58 80.8528,-54.5001 80.8529,-61.5001"/>
</g>
</g>
</svg>