<?xml version="1.0" encoding="UTF-8"?>
<svg xmlns="http://www.w3.org/2000/svg" xmlns:xlink="http://www.w3.org/1999/xlink"
     width="96" height="96" viewBox="-8 -88 96 96">
<defs>
</defs>
<path d="M40,-40 L60,-40 L60,-60 L20,-60 L20,-20 L40,-20 Z" fill="blue" stroke-width="2" stroke="black" />
<path d="M40,-20 L60,-20 L60,-40 L40,-40 Z" fill="black" stroke-width="2" stroke="black" />
<text x="5" y="-44" font-size="16" fill="grey" dy="0em">0</text>
<text x="25" y="-64" font-size="16" fill="grey" dy="0em">0</text>
<text x="5" y="-24" font-size="16" fill="grey" dy="0em">1</text>
<text x="45" y="-64" font-size="16" fill="grey" dy="0em">1</text>
</svg>