<svg width="550" height="390" xmlns="http://www.w3.org/2000/svg">

        <rect stroke-width="0" height="430" width="600" y="0" x="0" fill="white"></rect>
        <rect x="50" y="270" width="50" height="55" stroke="#333" stroke-width="3" fill="#D1FFB4">
        </rect>
        <rect x="100" y="250" width="50" height="75" stroke="#333" stroke-width="3" fill="#D1FFB4">
            <animate attributeName="x" values="100;100;100;100;150;150;150" dur="10s" calcMode="discrete"
                repeatCount="indefinite" />
        </rect>
        <rect x="150" y="230" width="50" height="95" stroke="#333" stroke-width="3" fill="#D1FFB4">
            <animate attributeName="x" values="150;150;150;200;200;200;200" dur="10s" calcMode="discrete"
                repeatCount="indefinite" />
        </rect>
        <rect y="220" width="50" height="105" stroke="#333" stroke-width="3" fill="#D1FFB4">
            <animate attributeName="x" values="200;200;250;250;250;250;250" dur="10s" calcMode="discrete"
                repeatCount="indefinite" />
        </rect>

        <!-- La barre à déplacer -->
        <rect width="50" height="70" stroke="#333" stroke-width="3" fill="#f79a22">
            <animate attributeName="y" values="255;70;70;70;70;255;255" dur="10s" calcMode="discrete"
                repeatCount="indefinite" />
            <animate attributeName="x" values="250;250;200;150;100;100;100" dur="10s" calcMode="discrete"
                repeatCount="indefinite" />
        </rect>
        <rect x="300" y="275" width="50" height="50" stroke="#333" stroke-width="3" fill="#818181">
        </rect>
        <rect x="350" y="205" width="50" height="120" stroke="#333" stroke-width="3" fill="#818181">
        </rect>
        <rect x="400" y="225" width="50" height="100" stroke="#333" stroke-width="3" fill="#818181">
        </rect>
        <rect x="450" y="255" width="50" height="70" stroke="#333" stroke-width="3" fill="#818181">
        </rect>

        <!-- Les indices -->
        <text stroke-width="0" stroke="#000" text-anchor="middle" font-family="consolas"
            font-size="24" x="75" y="350" fill="#000">0</text>
        <text stroke-width="0" stroke="#000" text-anchor="middle" font-family="consolas"
            font-size="24" x="125" y="350" fill="#000">1</text>
        <text stroke-width="0" stroke="#000" text-anchor="middle" font-family="consolas"
            font-size="24" x="175" y="350" fill="#000">2</text>
        <text stroke-width="0" stroke="#000" text-anchor="middle" font-family="consolas"
            font-size="24" x="225" y="350" fill="#000">3</text>
        <text stroke-width="0" stroke="#000" text-anchor="middle" font-family="consolas"
            font-size="24" x="275" y="350" fill="#000">4</text>
        <text stroke-width="0" stroke="#000" text-anchor="middle" font-family="consolas"
            font-size="24" x="325" y="350" fill="#000">5</text>
        <text stroke-width="0" stroke="#000" text-anchor="middle" font-family="consolas"
            font-size="24" x="375" y="350" fill="#000">6</text>
        <text stroke-width="0" stroke="#000" text-anchor="middle" font-family="consolas"
            font-size="24" x="425" y="350" fill="#000">7</text>
        <text stroke-width="0" stroke="#000" text-anchor="middle" font-family="consolas"
            font-size="24" x="475" y="350" fill="#000">8</text>

        <!-- Valeur à insérer -->
        <text stroke-width="0" stroke="#000" text-anchor="left" font-family="consolas"
            font-size="24" fill="#000">valeur à insérer
            <animate attributeName="y" values="-500;105;105;105;105;-500;-500;-500" dur="10s"
                calcMode="discrete" repeatCount="indefinite" />
            <animate attributeName="x" values="310;310;260;210;160;160;160" dur="10s" calcMode="discrete"
                repeatCount="indefinite" />
        </text>

        <!-- j -->
        <text y="380" stroke-width="0" stroke="#000" text-anchor="middle" font-family="consolas"
            font-size="24" fill="#000">i=j
            <animate attributeName="x" values="275;-300;-300;-300;-300;-300;-300" dur="10s" calcMode="discrete"
                repeatCount="indefinite" />
        </text>

        <!-- j -->
        <text y="380" stroke-width="0" stroke="#000" text-anchor="middle" font-family="consolas"
            font-size="24" fill="#000">j
            <animate attributeName="x" values="-300;275;225;175;125;-300;-300" dur="10s" calcMode="discrete"
                repeatCount="indefinite" />
        </text>

        <!-- j-1 -->
        <text y="380" stroke-width="0" stroke="#000" text-anchor="middle" font-family="consolas"
            font-size="24" fill="#000">j-1
            <animate attributeName="x" values="-300;225;175;125;75;-300;-300" dur="10s" calcMode="discrete"
                repeatCount="indefinite" />
        </text>

        <line x1="45" y1="255" x2="305" y2="255" stroke="#ff0000" stroke-width="5"
            stroke-dasharray="5,5">
            <animate attributeName="y1" values="-500;255;255;255;255;255;255" dur="10s"
                calcMode="discrete" repeatCount="indefinite" />
            <animate attributeName="y2" values="-500;255;255;255;255;255;255" dur="10s"
                calcMode="discrete" repeatCount="indefinite" />
        </line>

</svg>