<?xml version="1.0" encoding="UTF-8" standalone="no"?>
<!DOCTYPE svg PUBLIC "-//W3C//DTD SVG 1.1//EN" "http://www.w3.org/Graphics/SVG/1.1/DTD/svg11.dtd">
<!-- Generated by graphviz version 2.40.1 (20161225.0304)
 -->
<!-- Title: automate Pages: 1 -->
<svg width="553pt" height="87pt" viewBox="0.00 0.00 553.32 86.80" xmlns="http://www.w3.org/2000/svg" xmlns:xlink="http://www.w3.org/1999/xlink">
<g id="graph0" class="graph" transform="scale(1 1) rotate(0) translate(4 82.8)">
<title>automate</title>
<polygon fill="#ffffff" stroke="transparent" points="-4,4 -4,-82.8 549.3198,-82.8 549.3198,4 -4,4"/>
<!-- 0 -->
<g id="node1" class="node">
<title>0</title>
<ellipse fill="none" stroke="#000000" cx="113" cy="-22" rx="18" ry="18"/>
<ellipse fill="none" stroke="#000000" cx="113" cy="-22" rx="22" ry="22"/>
<text text-anchor="middle" x="113" y="-17.8" font-family="Helvetica,Arial,sans-serif" font-size="14.00" fill="#000000">0</text>
</g>
<!-- 1 -->
<g id="node3" class="node">
<title>1</title>
<ellipse fill="none" stroke="#000000" cx="192.8906" cy="-22" rx="18" ry="18"/>
<text text-anchor="middle" x="192.8906" y="-17.8" font-family="Helvetica,Arial,sans-serif" font-size="14.00" fill="#000000">1</text>
</g>
<!-- 0&#45;&gt;1 -->
<g id="edge1" class="edge">
<title>0-&gt;1</title>
<path fill="none" stroke="#000000" d="M135.254,-22C144.3112,-22 154.8891,-22 164.4928,-22"/>
<polygon fill="#000000" stroke="#000000" points="164.7887,-25.5001 174.7887,-22 164.7887,-18.5001 164.7887,-25.5001"/>
<text text-anchor="middle" x="154.9453" y="-26.2" font-family="Consolas" font-size="14.00" fill="#000000">t</text>
</g>
<!-- 4 -->
<g id="node2" class="node">
<title>4</title>
<ellipse fill="none" stroke="#000000" cx="432.3198" cy="-22" rx="18" ry="18"/>
<ellipse fill="none" stroke="#000000" cx="432.3198" cy="-22" rx="22" ry="22"/>
<text text-anchor="middle" x="432.3198" y="-17.8" font-family="Helvetica,Arial,sans-serif" font-size="14.00" fill="#000000">4</text>
</g>
<!-- 4&#45;&gt;4 -->
<g id="edge5" class="edge">
<title>4-&gt;4</title>
<path fill="none" stroke="#000000" d="M425.0029,-42.9908C424.0996,-53.0872 426.5386,-62 432.3198,-62 436.0234,-62 438.3554,-58.3422 439.3156,-53.0587"/>
<polygon fill="#000000" stroke="#000000" points="442.8161,-53.0973 439.6367,-42.9908 435.8196,-52.8741 442.8161,-53.0973"/>
<text text-anchor="middle" x="432.3198" y="-66.2" font-family="Consolas" font-size="14.00" fill="#000000">a</text>
</g>
<!-- end -->
<g id="node7" class="node">
<title>end</title>
<text text-anchor="middle" x="518.3198" y="-17.8" font-family="Helvetica,Arial,sans-serif" font-size="14.00" fill="#000000">fin</text>
</g>
<!-- 4&#45;&gt;end -->
<g id="edge7" class="edge">
<title>4-&gt;end</title>
<path fill="none" stroke="#000000" d="M454.4669,-22C462.4796,-22 471.7668,-22 480.7348,-22"/>
<polygon fill="#000000" stroke="#000000" points="481.0203,-25.5001 491.0203,-22 481.0202,-18.5001 481.0203,-25.5001"/>
</g>
<!-- 2 -->
<g id="node4" class="node">
<title>2</title>
<ellipse fill="none" stroke="#000000" cx="271.1052" cy="-22" rx="18" ry="18"/>
<text text-anchor="middle" x="271.1052" y="-17.8" font-family="Helvetica,Arial,sans-serif" font-size="14.00" fill="#000000">2</text>
</g>
<!-- 1&#45;&gt;2 -->
<g id="edge2" class="edge">
<title>1-&gt;2</title>
<path fill="none" stroke="#000000" d="M211.0312,-22C220.508,-22 232.317,-22 242.9508,-22"/>
<polygon fill="#000000" stroke="#000000" points="243.063,-25.5001 253.063,-22 243.0629,-18.5001 243.063,-25.5001"/>
<text text-anchor="middle" x="231.9979" y="-26.2" font-family="Consolas" font-size="14.00" fill="#000000">a</text>
</g>
<!-- 3 -->
<g id="node5" class="node">
<title>3</title>
<ellipse fill="none" stroke="#000000" cx="350.1052" cy="-22" rx="18" ry="18"/>
<text text-anchor="middle" x="350.1052" y="-17.8" font-family="Helvetica,Arial,sans-serif" font-size="14.00" fill="#000000">3</text>
</g>
<!-- 2&#45;&gt;3 -->
<g id="edge3" class="edge">
<title>2-&gt;3</title>
<path fill="none" stroke="#000000" d="M289.428,-22C298.9999,-22 310.9275,-22 321.6681,-22"/>
<polygon fill="#000000" stroke="#000000" points="321.8818,-25.5001 331.8818,-22 321.8818,-18.5001 321.8818,-25.5001"/>
<text text-anchor="middle" x="310.6052" y="-26.2" font-family="Consolas" font-size="14.00" fill="#000000">d</text>
</g>
<!-- 3&#45;&gt;4 -->
<g id="edge4" class="edge">
<title>3-&gt;4</title>
<path fill="none" stroke="#000000" d="M368.3513,-22C377.5761,-22 389.0531,-22 399.7286,-22"/>
<polygon fill="#000000" stroke="#000000" points="400.024,-25.5001 410.0239,-22 400.0239,-18.5001 400.024,-25.5001"/>
<text text-anchor="middle" x="389.2125" y="-26.2" font-family="Consolas" font-size="14.00" fill="#000000">a</text>
</g>
<!-- start -->
<g id="node6" class="node">
<title>start</title>
<text text-anchor="middle" x="27" y="-17.8" font-family="Helvetica,Arial,sans-serif" font-size="14.00" fill="#000000">début</text>
</g>
<!-- start&#45;&gt;0 -->
<g id="edge6" class="edge">
<title>start-&gt;0</title>
<path fill="none" stroke="#000000" d="M54.2109,-22C62.6073,-22 71.9364,-22 80.6441,-22"/>
<polygon fill="#000000" stroke="#000000" points="80.8529,-25.5001 90.8529,-22 80.8528,-18.5001 80.8529,-25.5001"/>
</g>
</g>
</svg>